media non attenuato: 2.106119*10^(-07) V*s
sigma non attenuato: 9.489414*10^(-11) V*s
-----------------------
media attenuato: 8.160358*10^(-09) V*s
sigma attenuato: 5.133248*10^(-11) V*s
-----------------------
attenuazione: 25.809155
errore: 0.162768
decibel: 28.235476
errore: 0.054778
